[{
  "activity_id": "7448412279097724928",
  "post_url": "https://www.linkedin.com/posts/deepiq16_aiagents-knowledgegraphs-graphrag-activity-7448412279097724928-oGg7?utm_source=social_share_send&utm_medium=member_desktop_web&rcm=ACoAAGS__VQBT5Mcv-bU11FoicE2FtR-wI59RQY",
  "text": "Graph RAGs are emerging as a core component of many effective AI agents.\nThey are not infrastructure. They are enterprise IP.\n \nEnterprises have become comfortable outsourcing systems. Data warehouses, ERP platforms, and applications run externally while ownership of data remains internal.\n \nBut a knowledge graph is different.\n \nIt doesn't just store data. It defines:\n • how your enterprise is structured\n • how systems relate\n • how decisions impact each other\n \nIn the context of AI agents, this becomes critical. Agents rely on this structure to interpret data and operate across systems.\n \nOver time, the knowledge graph begins to reflect how the enterprise functions.\n \nAt that point, it becomes more than a technical layer. It becomes enterprise intellectual property.\n \nThe key question is not where the graph is deployed. It is who defines and controls the structure behind it.\n \nRead the full whitepaper: https://lnkd.in/gxSSHTF3\n \n#AIAgents #KnowledgeGraphs #GraphRAG #EnterpriseAI #AgenticAI #EnterpriseIP #GenAI",
  "full_urn": "urn:li:activity:7448412279097724928",
  "author": {
    "name": "DeepIQ",
    "headline": "21,268 followers",
    "profile_id": "13624737",
    "profile_url": "https://www.linkedin.com/company/deepiq16/posts",
    "image_url": "https://media.licdn.com/dms/image/v2/C510BAQGaIFxvEO6lAw/company-logo_100_100/company-logo_100_100/0/1630566891517/deepiq16_logo?e=1777507200&v=beta&t=2YT8Hvxev4AI-0CC_xUMJpHYd9q3HsQilrdmzB5MPHQ"
  },
  "stats": {
    "total_reactions": 3,
    "comments": 0,
    "shares": 1,
    "reactions": [
      {
        "type": "LIKE",
        "count": 3
      }
    ]
  },
  "posted_at": {
    "display_text": "22m",
    "date": "2026-04-10 18:51:12",
    "timestamp": 1775839872145,
    "edited": true
  },
  "hashtags": [
    "AIAgents",
    "KnowledgeGraphs",
    "GraphRAG",
    "EnterpriseAI",
    "AgenticAI",
    "EnterpriseIP",
    "GenAI"
  ],
  "content": {
    "type": "image",
    "url": "https://media.licdn.com/dms/image/v2/D5622AQGthphkjB63pA/feedshare-shrink_2048_1536/B56Z14TfwSIIAk-/0/1775839870215?e=1777507200&v=beta&t=ivpY0QT-0Dq5P6pKwQZgvj8yCRz7U9ktBJ2Kme7aLw8",
    "images": [
      {
        "url": "https://media.licdn.com/dms/image/v2/D5622AQGthphkjB63pA/feedshare-shrink_800/B56Z14TfwSIIAg-/0/1775839870214?e=1777507200&v=beta&t=F2ssieHJxB-xnGj-vHFci5oi3LJvEvEoyMNGvpteLTE",
        "width": 800,
        "height": 800
      },
      {
        "url": "https://media.licdn.com/dms/image/v2/D5622AQGthphkjB63pA/feedshare-shrink_2048_1536/B56Z14TfwSIIAk-/0/1775839870215?e=1777507200&v=beta&t=ivpY0QT-0Dq5P6pKwQZgvj8yCRz7U9ktBJ2Kme7aLw8",
        "width": 1200,
        "height": 1200
      },
      {
        "url": "https://media.licdn.com/dms/image/v2/D5622AQGthphkjB63pA/feedshare-shrink_1280/B56Z14TfwSIIAQ-/0/1775839870215?e=1777507200&v=beta&t=bHyYsSoA0lw_pO2yAuvO5SmAG6JgULVVjFIqnxrxVAc",
        "width": 1200,
        "height": 1200
      }
    ]
  },
  "is_reshare": false,
  "metadata": {
    "total_count": 263,
    "count": 50,
    "page": 1,
    "page_size": 50,
    "total_pages": 6,
    "has_next_page": true,
    "has_prev_page": false
  },
  "search_input": "context graph"
},
{
  "activity_id": "7448411015446200320",
  "post_url": "https://www.linkedin.com/posts/rajshrinivasan_not-all-agent-workflows-are-the-same-activity-7448411015446200320-2x0L?utm_source=social_share_send&utm_medium=member_desktop_web&rcm=ACoAAGS__VQBT5Mcv-bU11FoicE2FtR-wI59RQY",
  "text": "👉 Not all agent workflows are the same.\n\nWe tend to say “build an agent” as if there’s only one pattern. There isn’t. Over the past few weeks, I’ve been experimenting with a few:\n\n🔹 **Sequential pipelines**\nStep-by-step processing\nExtractor → Annotator → Summarizer\nUse when each stage depends on the previous one\n\n🔹 **Concurrent (fan-out / fan-in)**\nMultiple agents run in parallel → results merged\nUse when tasks are independent and latency matters\n\n🔹 **DAG workflows**\nFixed structure, deterministic routing\nUse when you need predictability and testability\n\n🔹 **Agent loops (ReAct)**\nModel decides what to do next\nUse when the path isn’t known upfront\n\n🔹 **Group chat / multi-agent collaboration**\nAgents share context and build on each other\nUse when ideas need to evolve, not just process\n\n\nThe mistake I see often:\n\n👉 Trying to solve everything with one pattern\n\nBut each pattern answers a different question:\n\n* Who decides the next step?\n* Is the flow deterministic or emergent?\n* Can you predict cost and latency?\n* Can you test it?\n\nThere’s another dimension to this:\n\n👉 Not just how the flow works…\n👉 But who does the work\n\n🔹 **Magentic delegation (agent-as-tool)**\nA manager agent calls specialist agents as if they were tools\n\n* keeps control centralized\n* isolates responsibilities\n* makes specialists reusable\n\nThis combines with most orchestration styles — it’s a layering choice, not a replacement\n\n\nHere’s what helped me make sense of frameworks:\n\n👉 They’re all exposing the same patterns\n👉 just in different ways\n\n**Flow (orchestration):**\n\n* LangGraph → explicit graphs (nodes + edges)\n* Azure AI Foundry → pipelines / orchestrators\n* LlamaIndex → workflows / query pipelines\n\n**Delegation (magentic):**\n\n* LangChain → agents calling tools (including sub-agents)\n* Azure → connected agents / tool invocation\n* LlamaIndex → tool-using agents / sub-workflows\n\nDifferent abstractions. Same ideas.\n\nA cleaner way to think about it:\n\n✔ Keep orchestration patterns simple\n✔ Add delegation as a second dimension\n\nOrchestration is about **flow**\nMagentic is about **who does the work**\n\nThey’re not competing ideas. They compose. Most confusion in agent design comes from mixing these two dimensions. Once you separate them, “agent design” becomes much clearer. You’re not choosing a framework. You’re choosing a control model. Frameworks don’t define architecture. They just make certain designs easier.",
  "full_urn": "urn:li:activity:7448411015446200320",
  "author": {
    "name": "Raj Shrinivasan",
    "headline": "AI Engineer & Builder | Agentic Systems · RAG · LangGraph · Azure AI Foundry | From Idea to Production",
    "profile_id": "359037924",
    "profile_url": "https://www.linkedin.com/in/rajshrinivasan?miniProfileUrn=urn%3Ali%3Afsd_profile%3AACoAABVme-QBEI1MUNEkhJsetyMMMh8XMacH090",
    "image_url": "https://media.licdn.com/dms/image/v2/D5635AQEsH5eoLgHtxw/profile-framedphoto-shrink_100_100/B56Zu.rqZrIQAo-/0/1768430675737?e=1776448800&v=beta&t=PzHQt_dUYvwV5dcAhna2ryVU-0GxW1LkgGmqShgKFEU"
  },
  "stats": {
    "total_reactions": 1,
    "comments": 0,
    "shares": 0,
    "reactions": [
      {
        "type": "LIKE",
        "count": 1
      }
    ]
  },
  "posted_at": {
    "display_text": "27m",
    "date": "2026-04-10 18:46:10",
    "timestamp": 1775839570867
  },
  "hashtags": [],
  "content": {
    "type": "image",
    "url": "https://media.licdn.com/dms/image/v2/D5622AQE92yog_sgtKw/feedshare-shrink_2048_1536/B56Z14SWefGgAs-/0/1775839570152?e=1777507200&v=beta&t=hvKp7AavHpLlJVJhVVdJVoG4ekDcYZJu0xuSTGkxAcA",
    "images": [
      {
        "url": "https://media.licdn.com/dms/image/v2/D5622AQE92yog_sgtKw/feedshare-shrink_1280/B56Z14SWefGgAY-/0/1775839570151?e=1777507200&v=beta&t=vVAwigGhcd3LHj3fgL6L5q6X31orqBoF0DOxf9eHA4o",
        "width": 1280,
        "height": 853
      },
      {
        "url": "https://media.licdn.com/dms/image/v2/D5622AQE92yog_sgtKw/feedshare-shrink_800/B56Z14SWefGgAo-/0/1775839570151?e=1777507200&v=beta&t=gN8uBfvgyFXHsD13jhXIDMtUUc-h5q48iUPJE3Nz9cs",
        "width": 800,
        "height": 533
      },
      {
        "url": "https://media.licdn.com/dms/image/v2/D5622AQE92yog_sgtKw/feedshare-shrink_2048_1536/B56Z14SWefGgAs-/0/1775839570152?e=1777507200&v=beta&t=hvKp7AavHpLlJVJhVVdJVoG4ekDcYZJu0xuSTGkxAcA",
        "width": 1536,
        "height": 1024
      }
    ]
  },
  "is_reshare": false,
  "metadata": {
    "total_count": 263,
    "count": 50,
    "page": 1,
    "page_size": 50,
    "total_pages": 6,
    "has_next_page": true,
    "has_prev_page": false
  },
  "search_input": "context graph"
},
{
  "activity_id": "7448410725389320192",
  "post_url": "https://www.linkedin.com/posts/gengyang_zero-false-positives-ai-agent-finds-real-activity-7448410725389320192-rbIV?utm_source=social_share_send&utm_medium=member_desktop_web&rcm=ACoAAGS__VQBT5Mcv-bU11FoicE2FtR-wI59RQY",
  "text": "Discovery is becoming abundant. Actionability is still scarce.\n\nI recently joined Cyber Defense TV to talk about one of the biggest problems in application security today: the industry is getting better and faster at generating findings, but proving which ones are real is still the harder part.\n\nThat changes how security teams work. When a finding cannot be verified, teams end up debating reachability, severity, and priority. A working PoC usually settles that discussion much faster than a long argument ever will.\n\nAt ZAST.AI, our approach is built around that reality:\nAnalyze — combine static analysis, code property graph analysis, and LLM reasoning to understand flows, assets, trust boundaries, and business logic\nGenerate — produce PoC candidates from the relevant execution context\nVerify — run those PoCs against test targets to determine whether the path is actually exploitable\n\nSo far, that workflow has helped us turn candidate findings into verified results, contribute 150+ CVEs across projects including Microsoft Azure SDK, Apache Struts, and WordPress, and uncover hundreds of “forever days” in legacy IoT firmware.\n\nOne of the main points from the interview was simple: as AI-generated reports continue to multiply, verification becomes more important for everyone in the process — researchers, vendors, CNAs, and defenders trying to prioritize what actually matters.\n\nIf you want the full conversation, the episode is here:\n🎥 Full episode: https://lnkd.in/gDHy4wTN\n\n#Cybersecurity #AppSec #VulnerabilityResearch #SoftwareSecurity #AIForSecurity",
  "full_urn": "urn:li:activity:7448410725389320192",
  "author": {
    "name": "Geng Yang",
    "headline": "Founder & CEO at ZAST.AI | Autonomous exploit verification for AppSec teams | From findings to proof",
    "profile_id": "17766077",
    "profile_url": "https://www.linkedin.com/in/gengyang?miniProfileUrn=urn%3Ali%3Afsd_profile%3AACoAAAEPFr0BHJ67G0g7Txvpawtvq7UHdDzerSg",
    "image_url": "https://media.licdn.com/dms/image/v2/D5603AQFpwouCR-mcnA/profile-displayphoto-scale_100_100/B56ZvkKvlPKwAc-/0/1769059589267?e=1777507200&v=beta&t=0-iBpOsWRPfP3Llyaf3HTQdtD80nkUrtTkGaKQzkDF0"
  },
  "stats": {
    "total_reactions": 0,
    "comments": 0,
    "shares": 0,
    "reactions": []
  },
  "posted_at": {
    "display_text": "28m",
    "date": "2026-04-10 18:45:01",
    "timestamp": 1775839501712
  },
  "hashtags": [
    "Cybersecurity",
    "AppSec",
    "VulnerabilityResearch",
    "SoftwareSecurity",
    "AIForSecurity"
  ],
  "content": {
    "type": "article",
    "article": {
      "title": "Zero False Positives: AI Agent Finds Real Vulnerabilities & Generates Exploits | Zast AI",
      "subtitle": "youtube.com",
      "url": "https://youtu.be/N3aB4w4jZHY",
      "thumbnail_url": "https://media.licdn.com/dms/image/sync/v2/D5627AQH-6Q8xrvZvJA/articleshare-shrink_1280_800/B56Z12EiEfJ8AQ-/0/1775802393976?e=1776448800&v=beta&t=Zrt-Ot9M6Mge5a4Etgz8L2XXkbLGwor5Qh2J01fo1p0"
    }
  },
  "is_reshare": false,
  "metadata": {
    "total_count": 263,
    "count": 50,
    "page": 1,
    "page_size": 50,
    "total_pages": 6,
    "has_next_page": true,
    "has_prev_page": false
  },
  "search_input": "context graph"
}]